{
  "stdout": [
    [
      0.16536,
      "\u001b[1m\u001b[3m%\u001b[23m\u001b[1m\u001b[0m                                                                                                                                         \r \r"
    ],
    [
      0.021081,
      "\r\n\u001b[34m\u001b[01mexample-voting-app\u001b[22m/vote \u001b[90mgit/master* \u001b[39m \u001b[33m\u001b[39m\r\n"
    ],
    [
      2.2e-05,
      "\u001bk..ting-app/vote\u001b\\"
    ],
    [
      9.5e-05,
      "\r\u001b[0m\u001b[23m\u001b[24m\u001b[J\u001b[35m❯\u001b[39m \u001b[K\u001b[120C\u001b[90mtravis@zarathud\u001b[39m\u001b[135D"
    ],
    [
      1.8e-05,
      "\u001b[?1h\u001b=\u001b[?2004h"
    ],
    [
      0.595454,
      "d"
    ],
    [
      0.159866,
      "\bdo"
    ],
    [
      0.087612,
      "c"
    ],
    [
      0.112185,
      "k"
    ],
    [
      0.1281,
      "e"
    ],
    [
      0.103877,
      "r"
    ],
    [
      0.15218,
      " "
    ],
    [
      0.119898,
      "p"
    ],
    [
      0.080125,
      "u"
    ],
    [
      0.127794,
      "s"
    ],
    [
      0.112214,
      "h"
    ],
    [
      0.071939,
      " "
    ],
    [
      0.383908,
      "h"
    ],
    [
      0.104023,
      "e"
    ],
    [
      0.168287,
      "y"
    ],
    [
      0.12692,
      "t"
    ],
    [
      0.201057,
      "r"
    ],
    [
      0.127699,
      "a"
    ],
    [
      0.160115,
      "v"
    ],
    [
      0.255961,
      "/"
    ],
    [
      0.336014,
      "v"
    ],
    [
      0.15999,
      "o"
    ],
    [
      0.080128,
      "t"
    ],
    [
      0.159977,
      "e"
    ],
    [
      0.775885,
      "\u001b[?1l\u001b>\u001b[?2004l\r\r\n"
    ],
    [
      0.125379,
      "The push refers to a repository [docker.io/coltonv/vote]\r\n"
    ],
    [
      0.808106,
      "\r\n\u001b[1A\u001b[2K\rf5f6fc37400f: Preparing \r\u001b[1B"
    ],
    [
      2.6e-05,
      "\r\n\u001b[1A\u001b[2K\r4a5beee4ab9c: Preparing \r\u001b[1B\r\n\u001b[1A\u001b[2K\r7ca20c248cba: Preparing \r\u001b[1B"
    ],
    [
      3.1e-05,
      "\r\n\u001b[1A\u001b[2K\rb08cc2f15913: "
    ],
    [
      2.2e-05,
      "Preparing \r\u001b[1B\r\n\u001b[1A\u001b[2K\rea6fb20ac5c0: Preparing \r\u001b[1B"
    ],
    [
      1.7e-05,
      "\r\n\u001b[1A\u001b[2K\r24b5c72b5972: Preparing \r\u001b[1B"
    ],
    [
      1.6e-05,
      "\r\n\u001b[1A\u001b[2K\r590266e37bf8: Preparing \r\u001b[1B"
    ],
    [
      1.6e-05,
      "\r\n\u001b[1A\u001b[2K\rba2cc2690e31: Preparing \r\u001b[1B"
    ],
    [
      1.9e-05,
      "\u001b[1A\u001b[2K\rba2cc2690e31: Waiting \r\u001b[1B"
    ],
    [
      2.1e-05,
      "\u001b[3A\u001b[2K\r24b5c72b5972: Waiting \r\u001b[3B"
    ],
    [
      1.6e-05,
      "\u001b[2A\u001b[2K\r590266e37bf8: Waiting \r\u001b[2B"
    ],
    [
      1.717035,
      "\u001b[6A\u001b[2K\r7ca20c248cba: "
    ],
    [
      5.4e-05,
      "Pushing [==================================================>]    512 B\r\u001b[6B"
    ],
    [
      0.000324,
      "\u001b[5A\u001b[2K\rb08cc2f15913: Pushing 1.536 kB\r\u001b[5B"
    ],
    [
      4.2e-05,
      "\u001b[6A\u001b[2K\r7ca20c248cba: "
    ],
    [
      2.1e-05,
      "Pushing [==================================================>]  2.56 kB\r\u001b[6B"
    ],
    [
      0.01528,
      "\u001b[8A\u001b[2K\rf5f6fc37400f: Pushing [====>                                              ]    512 B/5.418 kB\r\u001b[8B"
    ],
    [
      0.001853,
      "\u001b[4A\u001b[2K\r"
    ],
    [
      5.7e-05,
      "ea6fb20ac5c0: Pushing [>                                                  ] 69.12 kB/5.759 MB\r\u001b[4B"
    ],
    [
      0.000293,
      "\u001b[8A\u001b[2K\rf5f6fc37400f: "
    ],
    [
      3.8e-05,
      "Pushing [==================================================>]  12.8 kB\r\u001b[8B"
    ],
    [
      0.566747,
      "\u001b[4A\u001b[2K\rea6fb20ac5c0: Pushing [=>                                                 ] 134.7 kB/5.759 MB\r"
    ],
    [
      5e-05,
      "\u001b[4B"
    ],
    [
      0.013524,
      "\u001b[7A\u001b[2K\r4a5beee4ab9c: Pushing [>                                                  ] 132.1 kB/12.71 MB\r\u001b[7B"
    ],
    [
      0.586651,
      "\u001b[4A\u001b[2K\rea6fb20ac5c0: Pushing [===>                                               ] 346.1 kB/5.759 MB\r\u001b[4B"
    ],
    [
      0.200561,
      "\u001b[4A\u001b[2K\rea6fb20ac5c0: Pushing [===>                                               ] 411.6 kB/5.759 MB\r\u001b[4B"
    ],
    [
      0.603445,
      "\u001b[7A\u001b[2K\r4a5beee4ab9c: Pushing [=>                                                 ] 280.6 kB/12.71 MB\r\u001b[7B"
    ],
    [
      0.198335,
      "\u001b[4A\u001b[2K\rea6fb20ac5c0: Pushing [====>                                              ] 535.4 kB/5.759 MB\r\u001b[4B"
    ],
    [
      0.441373,
      "\u001b[4A\u001b[2K\rea6fb20ac5c0: "
    ],
    [
      3.8e-05,
      "Pushing [======>                                            ] 771.6 kB/5.759 MB\r\u001b[4B"
    ],
    [
      0.400878,
      "\u001b[4A\u001b[2K\rea6fb20ac5c0: Pushing [=======>                                           ] 913.4 kB/5.759 MB\r\u001b[4B"
    ],
    [
      0.278783,
      "\u001b[7A\u001b[2K\r4a5beee4ab9c: Pushing [=>                                                 ] 407.9 kB/12.71 MB\r\u001b[7B"
    ],
    [
      0.132041,
      "\u001b[4A\u001b[2K\rea6fb20ac5c0: "
    ],
    [
      3.4e-05,
      "Pushing [==========>                                        ] 1.229 MB/5.759 MB\r\u001b[4B"
    ],
    [
      0.590341,
      "\u001b[4A\u001b[2K\rea6fb20ac5c0: Pushing [============>                                      ] 1.462 MB/5.759 MB\r\u001b[4B"
    ],
    [
      0.105921,
      "\u001b[7A\u001b[2K\r4a5beee4ab9c: "
    ],
    [
      7.8e-05,
      "Pushing [==>                                                ] 673.3 kB/12.71 MB\r\u001b[7B"
    ],
    [
      0.306871,
      "\u001b[4A\u001b[2K\rea6fb20ac5c0: "
    ],
    [
      3.2e-05,
      "Pushing [==============>                                    ] 1.676 MB/5.759 MB\r\u001b[4B"
    ],
    [
      0.129605,
      "\u001b[5A\u001b[2K\rb08cc2f15913: Pushed \r\u001b[5B"
    ],
    [
      0.09658,
      "\u001b[7A\u001b[2K\r4a5beee4ab9c: Pushing [===>                                               ] 821.8 kB/12.71 MB\r"
    ],
    [
      4.6e-05,
      "\u001b[7B"
    ],
    [
      0.032227,
      "\u001b[6A\u001b[2K\r7ca20c248cba: Pushed \r\u001b[6B"
    ],
    [
      0.156813,
      "\u001b[4A\u001b[2K\rea6fb20ac5c0: Pushing [===================>                               ] 2.215 MB/5.759 MB\r\u001b[4B"
    ],
    [
      0.124774,
      "\u001b[7A\u001b[2K\r4a5beee4ab9c: Pushing [===>                                               ] 968.1 kB/12.71 MB\r\u001b[7B"
    ],
    [
      0.039026,
      "\u001b[8A\u001b[2K\rf5f6fc37400f: Pushed \r\u001b[8B"
    ],
    [
      0.330537,
      "\u001b[4A\u001b[2K\rea6fb20ac5c0: Pushing [==========================>                        ] 3.025 MB/5.759 MB\r\u001b[4B"
    ],
    [
      0.003675,
      "\u001b[7A\u001b[2K\r4a5beee4ab9c: "
    ],
    [
      3.6e-05,
      "Pushing [====>                                              ] 1.106 MB/12.71 MB\r\u001b[7B"
    ],
    [
      0.347259,
      "\u001b[2A\u001b[2K\r590266e37bf8: Pushing [=>                                                 ] 13.46 kB/618.2 kB\r\u001b[2B"
    ],
    [
      0.044605,
      "\u001b[4A\u001b[2K\rea6fb20ac5c0: Pushing [============================>                      ] 3.304 MB/5.759 MB\r\u001b[4B"
    ],
    [
      0.037386,
      "\u001b[7A\u001b[2K\r4a5beee4ab9c: Pushing [======>                                            ] 1.643 MB/12.71 MB\r\u001b[7B"
    ],
    [
      0.206714,
      "\u001b[1A\u001b[2K\rba2cc2690e31: Pushing [>                                                  ]  68.1 kB/4.807 MB\r\u001b[1B"
    ],
    [
      0.198179,
      "\u001b[7A\u001b[2K\r4a5beee4ab9c: Pushing [=========>                                         ] 2.458 MB/12.71 MB\r\u001b[7B"
    ],
    [
      0.005993,
      "\u001b[4A\u001b[2K\rea6fb20ac5c0: Pushing [=====================================>             ] 4.323 MB/5.759 MB\r\u001b[4B"
    ],
    [
      0.125332,
      "\u001b[2A\u001b[2K\r590266e37bf8: Pushing [=========================>                         ]   318 kB/618.2 kB\r\u001b[2B"
    ],
    [
      0.230163,
      "\u001b[4A\u001b[2K\rea6fb20ac5c0: Pushing [=============================================>     ] 5.223 MB/5.759 MB\r\u001b[4B"
    ],
    [
      0.045697,
      "\u001b[7A\u001b[2K\r4a5beee4ab9c: Pushing [============>                                      ] 3.148 MB/12.71 MB\r\u001b[7B"
    ],
    [
      0.039667,
      "\u001b[4A\u001b[2K\rea6fb20ac5c0: Pushing [==================================================>] 6.115 MB\r\u001b[4B"
    ],
    [
      0.034464,
      "\u001b[1A\u001b[2K\rba2cc2690e31: Pushing [=>                                                 ] 133.6 kB/4.807 MB\r\u001b[1B"
    ],
    [
      0.305125,
      "\u001b[2A\u001b[2K\r590266e37bf8: Pushing [=====================================>             ] 461.6 kB/618.2 kB\r\u001b[2B"
    ],
    [
      0.208082,
      "\u001b[1A\u001b[2K\rba2cc2690e31: Pushing [===>                                               ] 330.2 kB/4.807 MB\r\u001b[1B"
    ],
    [
      0.124721,
      "\u001b[7A\u001b[2K\r4a5beee4ab9c: Pushing [=================>                                 ]  4.41 MB/12.71 MB\r"
    ],
    [
      3.8e-05,
      "\u001b[7B"
    ],
    [
      0.086196,
      "\u001b[3A\u001b[2K\r24b5c72b5972: Pushing [>                                                  ] 546.8 kB/60.84 MB\r\u001b[3B"
    ],
    [
      0.584565,
      "\u001b[1A\u001b[2K\rba2cc2690e31: Pushing [====>                                              ] 395.8 kB/4.807 MB\r\u001b[1B"
    ],
    [
      0.015102,
      "\u001b[7A\u001b[2K\r4a5beee4ab9c: Pushing [=====================>                             ] 5.361 MB/12.71 MB\r\u001b[7B"
    ],
    [
      0.312985,
      "\u001b[2A\u001b[2K\r590266e37bf8: Pushing [===============================================>   ]   582 kB/618.2 kB\r"
    ],
    [
      0.000102,
      "\u001b[2B"
    ],
    [
      0.491127,
      "\u001b[1A\u001b[2K\rba2cc2690e31: Pushing [======>                                            ] 592.4 kB/4.807 MB\r\u001b[1B"
    ],
    [
      0.063709,
      "\u001b[3A\u001b[2K\r24b5c72b5972: "
    ],
    [
      2.9e-05,
      "Pushing [>                                                  ] 1.081 MB/60.84 MB\r\u001b[3B"
    ],
    [
      0.046426,
      "\u001b[7A\u001b[2K\r4a5beee4ab9c: Pushing [========================>                          ] 6.289 MB/12.71 MB\r\u001b[7B"
    ],
    [
      0.218632,
      "\u001b[2A\u001b[2K\r590266e37bf8: Pushing [==================================================>] 761.2 kB\r\u001b[2B"
    ],
    [
      0.264624,
      "\u001b[1A\u001b[2K\rba2cc2690e31: Pushing [======>                                            ] 657.9 kB/4.807 MB\r"
    ],
    [
      4.5e-05,
      "\u001b[1B"
    ],
    [
      0.329846,
      "\u001b[7A\u001b[2K\r4a5beee4ab9c: Pushing [=============================>                     ] 7.398 MB/12.71 MB\r\u001b[7B"
    ],
    [
      0.069435,
      "\u001b[1A\u001b[2K\rba2cc2690e31: Pushing [=======>                                           ] 723.5 kB/4.807 MB\r\u001b[1B"
    ],
    [
      0.119983,
      "\u001b[2A\u001b[2K\r590266e37bf8: Pushing [==================================================>] 935.4 kB\r\u001b[2B"
    ],
    [
      0.001089,
      "\u001b[2A\u001b[2K\r590266e37bf8: Pushing [==================================================>] 943.6 kB\r\u001b[2B"
    ],
    [
      0.2808,
      "\u001b[1A\u001b[2K\rba2cc2690e31: Pushing [=========>                                         ] 885.2 kB/4.807 MB\r\u001b[1B"
    ],
    [
      0.019449,
      "\u001b[3A\u001b[2K\r24b5c72b5972: Pushing [=>                                                 ] 1.616 MB/60.84 MB\r\u001b[3B"
    ],
    [
      0.339188,
      "\u001b[7A\u001b[2K\r4a5beee4ab9c: "
    ],
    [
      3.2e-05,
      "Pushing [=================================>                 ] 8.639 MB/12.71 MB\r\u001b[7B"
    ],
    [
      0.077174,
      "\u001b[1A\u001b[2K\rba2cc2690e31: Pushing [=============>                                     ] 1.266 MB/4.807 MB\r"
    ],
    [
      3.5e-05,
      "\u001b[1B"
    ],
    [
      0.258536,
      "\u001b[3A\u001b[2K\r24b5c72b5972: Pushing [=>                                                 ] 2.173 MB/60.84 MB\r\u001b[3B"
    ],
    [
      0.168964,
      "\u001b[1A\u001b[2K\rba2cc2690e31: "
    ],
    [
      2.2e-05,
      "Pushing [===============>                                   ] 1.462 MB/4.807 MB\r\u001b[1B"
    ],
    [
      0.33331,
      "\u001b[7A\u001b[2K\r4a5beee4ab9c: Pushing [=====================================>             ] 9.592 MB/12.71 MB\r\u001b[7B"
    ],
    [
      0.023871,
      "\u001b[1A\u001b[2K\rba2cc2690e31: "
    ],
    [
      4.5e-05,
      "Pushing [=================>                                 ] 1.662 MB/4.807 MB\r\u001b[1B"
    ],
    [
      0.301142,
      "\u001b[3A\u001b[2K\r24b5c72b5972: Pushing [==>                                                ] 2.719 MB/60.84 MB\r\u001b[3B"
    ],
    [
      0.119359,
      "\u001b[1A\u001b[2K\r"
    ],
    [
      4.2e-05,
      "ba2cc2690e31: Pushing [=======================>                           ] 2.252 MB/4.807 MB\r\u001b[1B"
    ],
    [
      0.254346,
      "\u001b[4A\u001b[2K\rea6fb20ac5c0: Pushed \r\u001b[4B"
    ],
    [
      0.009543,
      "\u001b[3A\u001b[2K\r24b5c72b5972: Pushing [==>                                                ]  3.25 MB/60.84 MB\r\u001b[3B"
    ],
    [
      0.033211,
      "\u001b[1A\u001b[2K\rba2cc2690e31: "
    ],
    [
      3.9e-05,
      "Pushing [============================>                      ] 2.711 MB/4.807 MB\r\u001b[1B"
    ],
    [
      0.106542,
      "\u001b[7A\u001b[2K\r4a5beee4ab9c: "
    ],
    [
      2.7e-05,
      "Pushing [==========================================>        ] 10.69 MB/12.71 MB\r\u001b[7B"
    ],
    [
      0.254094,
      "\u001b[3A\u001b[2K\r24b5c72b5972: Pushing [===>                                               ] 3.803 MB/60.84 MB\r\u001b[3B"
    ],
    [
      0.020735,
      "\u001b[1A\u001b[2K\rba2cc2690e31: Pushing [================================>                  ]  3.17 MB/4.807 MB\r\u001b[1B"
    ],
    [
      0.365585,
      "\u001b[1A\u001b[2K\r"
    ],
    [
      4.7e-05,
      "ba2cc2690e31: Pushing [=====================================>             ] 3.563 MB/4.807 MB\r\u001b[1B"
    ],
    [
      0.034024,
      "\u001b[3A\u001b[2K\r24b5c72b5972: Pushing [====>                                              ]  4.89 MB/60.84 MB\r\u001b[3B"
    ],
    [
      0.080019,
      "\u001b[7A\u001b[2K\r4a5beee4ab9c: Pushing [==============================================>    ] 11.83 MB/12.71 MB\r\u001b[7B"
    ],
    [
      0.106341,
      "\u001b[7A\u001b[2K\r"
    ],
    [
      4.4e-05,
      "4a5beee4ab9c: Pushing [=================================================> ] 12.66 MB/12.71 MB\r\u001b[7B"
    ],
    [
      0.181988,
      "\u001b[1A\u001b[2K\rba2cc2690e31: Pushing [==============================================>    ] 4.474 MB/4.807 MB\r\u001b[1B"
    ],
    [
      0.058139,
      "\u001b[1A\u001b[2K\r"
    ],
    [
      3.9e-05,
      "ba2cc2690e31: Pushing [==================================================>] 5.054 MB\r\u001b[1B"
    ],
    [
      0.007647,
      "\u001b[3A\u001b[2K\r24b5c72b5972: Pushing [====>                                              ] 5.998 MB/60.84 MB\r\u001b[3B"
    ],
    [
      0.246483,
      "\u001b[2A\u001b[2K\r590266e37bf8: Pushed \r\u001b[2B"
    ],
    [
      0.13388,
      "\u001b[7A\u001b[2K\r4a5beee4ab9c: Pushing [==================================================>] 12.94 MB\r\u001b[7B"
    ],
    [
      0.016106,
      "\u001b[3A\u001b[2K\r24b5c72b5972: Pushing [=====>                                             ] 7.103 MB/60.84 MB\r\u001b[3B"
    ],
    [
      0.029811,
      "\u001b[7A\u001b[2K\r4a5beee4ab9c: Pushing [==================================================>] 13.42 MB\r\u001b[7B"
    ],
    [
      0.355559,
      "\u001b[3A\u001b[2K\r24b5c72b5972: Pushing [======>                                            ] 8.218 MB/60.84 MB\r\u001b[3B"
    ],
    [
      0.106431,
      "\u001b[3A\u001b[2K\r24b5c72b5972: Pushing [========>                                          ] 9.833 MB/60.84 MB\r\u001b[3B"
    ],
    [
      0.339601,
      "\u001b[3A\u001b[2K\r24b5c72b5972: Pushing [=========>                                         ] 11.42 MB/60.84 MB\r"
    ],
    [
      2.8e-05,
      "\u001b[3B"
    ],
    [
      0.133724,
      "\u001b[3A\u001b[2K\r24b5c72b5972: Pushing [===========>                                       ] 13.53 MB/60.84 MB\r\u001b[3B"
    ],
    [
      0.115555,
      "\u001b[3A\u001b[2K\r24b5c72b5972: Pushing [============>                                      ] 15.68 MB/60.84 MB\r\u001b[3B"
    ],
    [
      0.32952,
      "\u001b[3A\u001b[2K\r24b5c72b5972: Pushing [=============>                                     ] 16.79 MB/60.84 MB\r\u001b[3B"
    ],
    [
      0.116837,
      "\u001b[3A\u001b[2K\r24b5c72b5972: Pushing [===============>                                   ] 18.46 MB/60.84 MB\r\u001b[3B"
    ],
    [
      0.29495,
      "\u001b[3A\u001b[2K\r24b5c72b5972: Pushing [===============>                                   ] 19.02 MB/60.84 MB\r\u001b[3B"
    ],
    [
      0.13312,
      "\u001b[3A\u001b[2K\r24b5c72b5972: Pushing [=================>                                 ] 20.69 MB/60.84 MB\r\u001b[3B"
    ],
    [
      0.107801,
      "\u001b[3A"
    ],
    [
      0.000188,
      "\u001b[2K\r24b5c72b5972: "
    ],
    [
      4.6e-05,
      "Pushing [==================>                                ] 22.36 MB/60.84 MB\r\u001b[3B"
    ],
    [
      0.108938,
      "\u001b[3A\u001b[2K\r24b5c72b5972: Pushing [====================>                              ] 24.54 MB/60.84 MB\r\u001b[3B"
    ],
    [
      0.454642,
      "\u001b[3A\u001b[2K\r24b5c72b5972: Pushing [=====================>                             ] 25.64 MB/60.84 MB\r\u001b[3B"
    ],
    [
      0.126856,
      "\u001b[3A\u001b[2K\r24b5c72b5972: Pushing [======================>                            ] 27.31 MB/60.84 MB\r\u001b[3B"
    ],
    [
      0.009272,
      "\u001b[1A\u001b[2K\rba2cc2690e31: Pushed \r\u001b[1B"
    ],
    [
      0.106971,
      "\u001b[3A\u001b[2K\r24b5c72b5972: Pushing [=======================>                           ] 28.98 MB/60.84 MB\r\u001b[3B"
    ],
    [
      0.128374,
      "\u001b[3A\u001b[2K\r24b5c72b5972: Pushing [=========================>                         ] 30.65 MB/60.84 MB\r\u001b[3B"
    ],
    [
      0.137279,
      "\u001b[3A\u001b[2K\r24b5c72b5972: Pushing [===========================>                       ] 32.88 MB/60.84 MB\r\u001b[3B"
    ],
    [
      0.110651,
      "\u001b[3A\u001b[2K\r24b5c72b5972: Pushing [============================>                      ] 34.55 MB/60.84 MB\r\u001b[3B"
    ],
    [
      0.123185,
      "\u001b[3A\u001b[2K\r24b5c72b5972: Pushing [=============================>                     ] 36.22 MB/60.84 MB\r\u001b[3B"
    ],
    [
      0.66821,
      "\u001b[3A\u001b[2K\r24b5c72b5972: Pushing [===============================>                   ] 37.89 MB/60.84 MB\r\u001b[3B"
    ],
    [
      0.104121,
      "\u001b[3A\u001b[2K\r24b5c72b5972: Pushing [================================>                  ] 40.03 MB/60.84 MB\r\u001b[3B"
    ],
    [
      0.609375,
      "\u001b[3A\u001b[2K\r24b5c72b5972: "
    ],
    [
      6.4e-05,
      "Pushing [===================================>               ] 42.74 MB/60.84 MB\r\u001b[3B"
    ],
    [
      0.266937,
      "\u001b[7A\u001b[2K\r4a5beee4ab9c: Pushed \r\u001b[7B"
    ],
    [
      0.320341,
      "\u001b[3A\u001b[2K\r24b5c72b5972: "
    ],
    [
      5.2e-05,
      "Pushing [====================================>              ] 44.88 MB/60.84 MB\r\u001b[3B"
    ],
    [
      0.105125,
      "\u001b[3A\u001b[2K\r24b5c72b5972: Pushing [======================================>            ] 46.49 MB/60.84 MB\r\u001b[3B"
    ],
    [
      0.120652,
      "\u001b[3A\u001b[2K\r24b5c72b5972: Pushing [=======================================>           ] 48.12 MB/60.84 MB\r\u001b[3B"
    ],
    [
      0.114815,
      "\u001b[3A\u001b[2K\r24b5c72b5972: Pushing [=========================================>         ] 50.27 MB/60.84 MB\r\u001b[3B"
    ],
    [
      0.485523,
      "\u001b[3A\u001b[2K\r24b5c72b5972: Pushing [=========================================>         ] 50.81 MB/60.84 MB\r\u001b[3B"
    ],
    [
      0.117861,
      "\u001b[3A\u001b[2K\r24b5c72b5972: Pushing [===========================================>       ] 52.45 MB/60.84 MB\r\u001b[3B"
    ],
    [
      0.12609,
      "\u001b[3A\u001b[2K\r24b5c72b5972: "
    ],
    [
      2e-05,
      "Pushing [============================================>      ] 54.62 MB/60.84 MB\r\u001b[3B"
    ],
    [
      0.10668,
      "\u001b[3A\u001b[2K\r24b5c72b5972: Pushing [==============================================>    ] 56.74 MB/60.84 MB\r\u001b[3B"
    ],
    [
      0.454974,
      "\u001b[3A\u001b[2K\r24b5c72b5972: Pushing [===============================================>   ] 57.28 MB/60.84 MB\r\u001b[3B"
    ],
    [
      0.130913,
      "\u001b[3A\u001b[2K\r24b5c72b5972: "
    ],
    [
      2.6e-05,
      "Pushing [================================================>  ] 58.88 MB/60.84 MB\r\u001b[3B"
    ],
    [
      0.106517,
      "\u001b[3A\u001b[2K\r24b5c72b5972: Pushing [==================================================>] 61.04 MB\r\u001b[3B"
    ],
    [
      0.109336,
      "\u001b[3A\u001b[2K\r24b5c72b5972: Pushing [==================================================>] 62.61 MB\r\u001b[3B"
    ],
    [
      0.111127,
      "\u001b[3A\u001b[2K\r24b5c72b5972: "
    ],
    [
      2.2e-05,
      "Pushing [==================================================>] 64.18 MB\r\u001b[3B"
    ],
    [
      0.027508,
      "\u001b[3A\u001b[2K\r24b5c72b5972: "
    ],
    [
      4.5e-05,
      "Pushing [==================================================>] 64.59 MB\r\u001b[3B"
    ],
    [
      4.527231,
      "\u001b[3A\u001b[2K\r24b5c72b5972: Pushed \r\u001b[3B"
    ],
    [
      7.443786,
      "latest: digest: sha256:84302bb83c2d51405c6fd743c1508c08a2a44a1b7728a4fafdaf39e84c95a791 size: 1993\r\n"
    ],
    [
      0.061169,
      "\u001b[1m\u001b[3m%\u001b[23m\u001b[1m\u001b[0m                                                                                                                                         \r \r"
    ],
    [
      0.019846,
      "\r\n\u001b[34m\u001b[01mexample-voting-app\u001b[22m/vote \u001b[90mgit/master* \u001b[39m \u001b[33m36s\u001b[39m\r\n"
    ],
    [
      3.3e-05,
      "\u001bk..ting-app/vote\u001b\\"
    ],
    [
      0.00016,
      "\r\u001b[0m\u001b[23m\u001b[24m\u001b[J\u001b[35m❯\u001b[39m \u001b[K\u001b[120C\u001b[90mtravis@zarathud\u001b[39m\u001b[135D\u001b[?1h\u001b="
    ],
    [
      3.6e-05,
      "\u001b[?2004h"
    ],
    [
      1.205496,
      "\u001b[?2004l\r\r\n"
    ]
  ],
  "height": 21,
  "duration": 42.222194,
  "command": null,
  "env": {
    "TERM": "screen-256color",
    "SHELL": "/usr/bin/zsh"
  },
  "version": 1,
  "title": null,
  "width": 138
}
